<?xml version="1.0" encoding="utf-8"?>
<!-- Generator: Adobe Illustrator 19.0.0, SVG Export Plug-In . SVG Version: 6.00 Build 0)  -->
<svg version="1.1" id="Calque_1" xmlns="http://www.w3.org/2000/svg" xmlns:xlink="http://www.w3.org/1999/xlink" x="0px" y="0px"
	 viewBox="0 0 80 80" style="enable-background:new 0 0 80 80;" xml:space="preserve">
<style type="text/css">
	.st0{enable-background:new    ;}
	.st1{fill:#997340;}
	.st2{fill:#DCA55F;}
	.st3{fill:#CA9757;}
	.st4{fill:#956E37;}
	.st5{fill:#D79F53;}
	.st6{fill:#C5924C;}
	.st7{fill:#943F65;}
	.st8{fill:#D35F90;}
	.st9{fill:#C25785;}
	.st10{fill:#965A43;}
	.st11{fill:#D78264;}
	.st12{fill:#C6785B;}
</style>
<g id="XMLID_47_">
	<g id="XMLID_30_">
		<g id="XMLID_24_" class="st0">
			<g id="XMLID_57_">
				<polygon id="XMLID_58_" class="st1" points="62.7,65.9 54,60.8 53.9,54.2 62.6,59.3 				"/>
			</g>
			<g id="XMLID_53_">
				<polygon id="XMLID_56_" class="st2" points="69.6,46.1 60.9,41.1 66.5,37.8 75.2,42.9 				"/>
			</g>
			<g id="XMLID_51_">
				<polygon id="XMLID_52_" class="st2" points="62.6,50.2 53.9,45.1 60.9,41.1 69.6,46.1 				"/>
			</g>
			<g id="XMLID_49_">
				<polygon id="XMLID_50_" class="st1" points="62.6,59.3 53.9,54.2 53.9,45.1 62.6,50.2 				"/>
			</g>
			<g id="XMLID_39_">
				<polygon id="XMLID_48_" class="st3" points="75.2,42.9 75.2,52 69.7,55.2 69.7,61.8 62.7,65.9 62.6,59.3 62.6,50.2 69.6,46.1 
									"/>
			</g>
		</g>
	</g>
	<g id="XMLID_46_">
		<g id="XMLID_21_" class="st0">
			<g id="XMLID_44_">
				<polygon id="XMLID_45_" class="st4" points="38.4,80 15.8,66.9 15.7,17 38.3,30.1 				"/>
			</g>
			<g id="XMLID_42_">
				<polygon id="XMLID_43_" class="st5" points="38.3,30.1 15.7,17 45.1,0 67.7,13.1 				"/>
			</g>
			<g id="XMLID_29_">
				<polygon id="XMLID_38_" class="st6" points="67.7,13.1 67.8,63 38.4,80 38.3,30.1 				"/>
			</g>
		</g>
	</g>
	<g id="XMLID_8_">
		<g id="XMLID_19_" class="st0">
			<g id="XMLID_40_">
				<polygon id="XMLID_41_" class="st1" points="48.1,69.8 42.9,66.8 42.9,56.7 48.1,59.8 				"/>
			</g>
			<g id="XMLID_36_">
				<polygon id="XMLID_37_" class="st2" points="48.1,59.8 42.9,56.7 61.1,46.2 66.3,49.2 				"/>
			</g>
			<g id="XMLID_26_">
				<polygon id="XMLID_28_" class="st3" points="66.3,49.2 66.3,59.3 48.1,69.8 48.1,59.8 				"/>
			</g>
		</g>
	</g>
	<g id="XMLID_14_">
		<g id="XMLID_18_" class="st0">
			<g id="XMLID_34_">
				<polygon id="XMLID_35_" class="st7" points="39,22.3 30.3,17.2 30.2,9.2 38.9,14.2 				"/>
			</g>
			<g id="XMLID_32_">
				<polygon id="XMLID_33_" class="st8" points="38.9,14.2 30.2,9.2 45.3,0.5 54,5.5 				"/>
			</g>
			<g id="XMLID_23_">
				<polygon id="XMLID_25_" class="st9" points="54,5.5 54,13.6 39,22.3 38.9,14.2 				"/>
			</g>
		</g>
	</g>
	<g id="XMLID_9_">
		<g id="XMLID_11_">
			<g id="XMLID_13_" class="st0">
				<g id="XMLID_22_">
					<polygon id="XMLID_31_" class="st7" points="25.3,57.1 20,54 20,48.4 25.2,51.4 					"/>
				</g>
				<g id="XMLID_17_">
					<polygon id="XMLID_20_" class="st8" points="25.2,51.4 20,48.4 24.2,46 29.4,49 					"/>
				</g>
				<g id="XMLID_15_">
					<polygon id="XMLID_16_" class="st9" points="29.4,49 29.5,54.7 25.3,57.1 25.2,51.4 					"/>
				</g>
			</g>
		</g>
		<g id="XMLID_10_">
			<g id="XMLID_2_" class="st0">
				<g id="XMLID_7_">
					<polygon id="XMLID_12_" class="st10" points="17.7,55.9 9,50.8 9,43.6 17.7,48.6 					"/>
				</g>
				<g id="XMLID_5_">
					<polygon id="XMLID_6_" class="st11" points="17.7,48.6 9,43.6 20.7,36.8 29.4,41.9 					"/>
				</g>
				<g id="XMLID_3_">
					<polygon id="XMLID_4_" class="st12" points="29.4,41.9 29.4,49.1 17.7,55.9 17.7,48.6 					"/>
				</g>
			</g>
		</g>
	</g>
</g>
</svg>
