<?xml version="1.0" encoding="utf-8"?>
<!-- Generator: Adobe Illustrator 19.0.0, SVG Export Plug-In . SVG Version: 6.00 Build 0)  -->
<svg version="1.1" id="Calque_1" xmlns="http://www.w3.org/2000/svg" xmlns:xlink="http://www.w3.org/1999/xlink" x="0px" y="0px"
	 viewBox="0 0 45 40.5" style="enable-background:new 0 0 45 40.5;" xml:space="preserve">
<style type="text/css">
	.st0{fill:#2D2726;}
	.st1{fill:#352F2A;}
	.st2{fill:#49413A;}
</style>
<g id="XMLID_8_">
	<polygon id="XMLID_9_" class="st0" points="43.7,13.8 43.7,26 22.6,38.3 22.6,26.1 	"/>
</g>
<g id="XMLID_6_">
	<polygon id="XMLID_7_" class="st1" points="22.6,26.1 22.6,38.3 1.3,26 1.3,13.8 	"/>
</g>
<g id="XMLID_4_">
	<polygon id="XMLID_5_" class="st2" points="43.7,13.8 22.6,26.1 1.3,13.8 22.4,1.5 	"/>
</g>
</svg>
