<?xml version="1.0" encoding="UTF-8"?>
<svg xmlns="http://www.w3.org/2000/svg" xmlns:xlink="http://www.w3.org/1999/xlink" width="1024pt" height="768pt" viewBox="0 0 1024 768" version="1.1">
<defs>
<clipPath id="clip0">
  <rect width="1024" height="768"/>
</clipPath>
</defs>
<g id="surface0" clip-path="url(#clip0)">
<path style="fill: none; stroke-width: 0.1; stroke-linecap: butt; stroke-linejoin: miter; stroke: rgb(28.235295%,45.098042%,58.823532%); opacity: 1;stroke-miterlimit: 10;" d="M 0 0 L 1024 0 L 1024 768 L 0 768 L 0 0 Z M 0 0 " transform="matrix(1,0,0,1,0,0)"/>
<path style="stroke: none; fill-rule: nonzero; fill: rgb(28.235295%,45.098042%,58.823532%); opacity: 1;" d="M 0 0 L 1024 0 L 1024 768 L 0 768 L 0 0 Z M 0 0 "/>
<path style="fill: none; stroke-width: 0.1; stroke-linecap: butt; stroke-linejoin: miter; stroke: rgb(36.862746%,65.098041%,60.784316%); opacity: 1;stroke-miterlimit: 10;" d="M 636.567932 290.583115 C 644.244186 285.673325 653.554581 283.038834 662.667191 284.467102 C 676.998199 286.735794 690.574295 296.054977 696.267944 309.645691 C 701.027802 320.819824 702.508926 333.877518 698.455643 345.487503 C 695.433075 354.546341 688.062576 361.313614 680.003906 366.004974 C 668.669205 373.084503 655.428741 376.140823 642.296082 377.628387 C 645.689621 388.153137 649.193115 398.642792 652.664246 409.143967 C 655.660233 418.577408 658.683395 428.00325 661.682114 437.437973 C 662.420502 439.859055 663.134247 442.292297 663.913727 444.709747 C 664.504425 446.54541 665.125809 448.372101 665.763794 450.206223 C 664.94252 451.34787 664.133453 452.498245 663.287628 453.621155 C 655.196579 428.953171 647.202316 404.253693 639.247375 379.542542 C 633.330444 378.867432 627.395874 378.393692 621.464218 377.92627 C 628.767075 404.725677 636.359665 431.449051 643.908966 458.181625 C 643.140778 458.262543 641.60437 458.424347 640.836166 458.505264 C 639.972641 455.572708 639.114502 452.645279 638.279114 449.712555 C 636.835831 444.604187 635.303986 439.523209 633.843872 434.423843 C 631.52417 426.253754 629.128128 418.107117 626.800858 409.941727 C 625.521744 409.937515 624.250412 409.946121 622.986893 409.967545 C 624.137253 409.670639 625.296448 409.380692 626.464447 409.097702 C 623.350235 397.707306 619.964233 386.389801 616.681305 375.047516 C 602.874847 370.133713 589.963806 362.760529 578.930969 353.094116 C 567.498657 343.260101 557.841293 331.511826 549.372757 319.078369 C 550.492477 316.184601 551.639404 313.119614 554.06868 311.04364 C 557.042023 308.236923 561.108566 307.180771 565.008789 306.399872 C 575.960358 324.150757 591.308105 338.975632 609.039047 349.890182 C 605.739731 338.820984 607.324646 326.809494 612.561325 316.605499 C 617.764679 305.781189 626.615753 297.10878 636.567932 290.583115 Z M 636.567932 290.583115 " transform="matrix(1,0,0,1,0,0)"/>
<path style="stroke: none; fill-rule: nonzero; fill: rgb(36.862746%,65.098041%,60.784316%); opacity: 1;" d="M 636.567932 290.583115 C 644.244186 285.673325 653.554581 283.038834 662.667191 284.467102 C 676.998199 286.735794 690.574295 296.054977 696.267944 309.645691 C 701.027802 320.819824 702.508926 333.877518 698.455643 345.487503 C 695.433075 354.546341 688.062576 361.313614 680.003906 366.004974 C 668.669205 373.084503 655.428741 376.140823 642.296082 377.628387 C 645.689621 388.153137 649.193115 398.642792 652.664246 409.143967 C 655.660233 418.577408 658.683395 428.00325 661.682114 437.437973 C 662.420502 439.859055 663.134247 442.292297 663.913727 444.709747 C 664.504425 446.54541 665.125809 448.372101 665.763794 450.206223 C 664.94252 451.34787 664.133453 452.498245 663.287628 453.621155 C 655.196579 428.953171 647.202316 404.253693 639.247375 379.542542 C 633.330444 378.867432 627.395874 378.393692 621.464218 377.92627 C 628.767075 404.725677 636.359665 431.449051 643.908966 458.181625 C 643.140778 458.262543 641.60437 458.424347 640.836166 458.505264 C 639.972641 455.572708 639.114502 452.645279 638.279114 449.712555 C 636.835831 444.604187 635.303986 439.523209 633.843872 434.423843 C 631.52417 426.253754 629.128128 418.107117 626.800858 409.941727 C 625.521744 409.937515 624.250412 409.946121 622.986893 409.967545 C 624.137253 409.670639 625.296448 409.380692 626.464447 409.097702 C 623.350235 397.707306 619.964233 386.389801 616.681305 375.047516 C 602.874847 370.133713 589.963806 362.760529 578.930969 353.094116 C 567.498657 343.260101 557.841293 331.511826 549.372757 319.078369 C 550.492477 316.184601 551.639404 313.119614 554.06868 311.04364 C 557.042023 308.236923 561.108566 307.180771 565.008789 306.399872 C 575.960358 324.150757 591.308105 338.975632 609.039047 349.890182 C 605.739731 338.820984 607.324646 326.809494 612.561325 316.605499 C 617.764679 305.781189 626.615753 297.10878 636.567932 290.583115 Z M 636.567932 290.583115 "/>
<path style="fill: none; stroke-width: 0.1; stroke-linecap: butt; stroke-linejoin: miter; stroke: rgb(61.176473%,70.19608%,49.019611%); opacity: 1;stroke-miterlimit: 10;" d="M 652.994873 288.862885 C 661.740326 287.289841 671.531235 288.656906 678.482605 294.507965 C 682.851654 299.980621 677.713745 308.898743 671.008606 308.813171 C 667.219284 308.462555 663.808273 306.461807 660.022598 306.097687 C 651.998444 305.176178 643.010727 307.218399 637.6203 313.615265 C 632.23056 320.065201 628.828598 328.455292 629.251648 336.94342 C 629.245392 342.882751 630.874725 348.629242 632.27298 354.352051 C 625.782043 354.316467 619.394897 352.97905 613.318817 350.75386 C 609.25589 340.396042 611.810837 328.850266 615.953064 318.946823 C 622.413239 303.683517 636.69249 291.978104 652.994873 288.862885 Z M 652.994873 288.862885 " transform="matrix(1,0,0,1,0,0)"/>
<path style="stroke: none; fill-rule: nonzero; fill: rgb(61.176473%,70.19608%,49.019611%); opacity: 1;" d="M 652.994873 288.862885 C 661.740326 287.289841 671.531235 288.656906 678.482605 294.507965 C 682.851654 299.980621 677.713745 308.898743 671.008606 308.813171 C 667.219284 308.462555 663.808273 306.461807 660.022598 306.097687 C 651.998444 305.176178 643.010727 307.218399 637.6203 313.615265 C 632.23056 320.065201 628.828598 328.455292 629.251648 336.94342 C 629.245392 342.882751 630.874725 348.629242 632.27298 354.352051 C 625.782043 354.316467 619.394897 352.97905 613.318817 350.75386 C 609.25589 340.396042 611.810837 328.850266 615.953064 318.946823 C 622.413239 303.683517 636.69249 291.978104 652.994873 288.862885 Z M 652.994873 288.862885 "/>
<path style="fill: none; stroke-width: 0.1; stroke-linecap: butt; stroke-linejoin: miter; stroke: rgb(28.235295%,45.098042%,58.823532%); opacity: 1;stroke-miterlimit: 10;" d="M 638.773666 315.701248 C 644.223373 309.452362 653.270432 305.82637 661.403748 308.504532 C 671.813232 312.013474 681.571701 321.269775 681.390533 332.938461 C 681.38443 338.746613 677.490631 343.718582 672.812469 346.766922 C 661.949127 353.925751 648.701141 356.849487 635.79631 356.369659 C 633.557632 348.788406 630.786057 340.949814 631.988983 332.929245 C 632.895462 326.800598 634.668243 320.496246 638.773666 315.701248 Z M 638.773666 315.701248 " transform="matrix(1,0,0,1,0,0)"/>
<path style="stroke: none; fill-rule: nonzero; fill: rgb(28.235295%,45.098042%,58.823532%); opacity: 1;" d="M 638.773666 315.701248 C 644.223373 309.452362 653.270432 305.82637 661.403748 308.504532 C 671.813232 312.013474 681.571701 321.269775 681.390533 332.938461 C 681.38443 338.746613 677.490631 343.718582 672.812469 346.766922 C 661.949127 353.925751 648.701141 356.849487 635.79631 356.369659 C 633.557632 348.788406 630.786057 340.949814 631.988983 332.929245 C 632.895462 326.800598 634.668243 320.496246 638.773666 315.701248 Z M 638.773666 315.701248 "/>
<path style="fill: none; stroke-width: 0.1; stroke-linecap: butt; stroke-linejoin: miter; stroke: rgb(61.176473%,70.19608%,49.019611%); opacity: 1;stroke-miterlimit: 10;" d="M 614.965546 355.025299 C 620.968369 356.793152 627.119339 358.041855 633.367188 358.539062 C 634.861877 363.898117 636.071503 369.335495 637.705643 374.659485 C 631.61145 374.856384 625.535019 374.085205 619.682068 372.397858 C 617.604889 366.758896 615.595856 361.036484 614.965546 355.025299 Z M 614.965546 355.025299 " transform="matrix(1,0,0,1,0,0)"/>
<path style="stroke: none; fill-rule: nonzero; fill: rgb(61.176473%,70.19608%,49.019611%); opacity: 1;" d="M 614.965546 355.025299 C 620.968369 356.793152 627.119339 358.041855 633.367188 358.539062 C 634.861877 363.898117 636.071503 369.335495 637.705643 374.659485 C 631.61145 374.856384 625.535019 374.085205 619.682068 372.397858 C 617.604889 366.758896 615.595856 361.036484 614.965546 355.025299 Z M 614.965546 355.025299 "/>
<path style="fill: none; stroke-width: 0.1; stroke-linecap: butt; stroke-linejoin: miter; stroke: rgb(61.176473%,70.19608%,49.019611%); opacity: 1;stroke-miterlimit: 10;" d="M 621.464218 377.92627 C 627.395874 378.393692 633.330444 378.867432 639.247375 379.542542 C 647.202316 404.253693 655.196579 428.953171 663.287628 453.621155 C 657.433182 459.519257 648.483322 459.182846 640.836166 458.505264 C 641.60437 458.424347 643.140778 458.262543 643.908966 458.181625 C 636.359665 431.449051 628.767075 404.725677 621.464218 377.92627 Z M 621.464218 377.92627 " transform="matrix(1,0,0,1,0,0)"/>
<path style="stroke: none; fill-rule: nonzero; fill: rgb(61.176473%,70.19608%,49.019611%); opacity: 1;" d="M 621.464218 377.92627 C 627.395874 378.393692 633.330444 378.867432 639.247375 379.542542 C 647.202316 404.253693 655.196579 428.953171 663.287628 453.621155 C 657.433182 459.519257 648.483322 459.182846 640.836166 458.505264 C 641.60437 458.424347 643.140778 458.262543 643.908966 458.181625 C 636.359665 431.449051 628.767075 404.725677 621.464218 377.92627 Z M 621.464218 377.92627 "/>
<path style="fill: none; stroke-width: 0.1; stroke-linecap: butt; stroke-linejoin: miter; stroke: rgb(91.764712%,91.764712%,91.764712%); opacity: 1;stroke-miterlimit: 10;" d="M 652.664246 409.143967 C 693.798294 408.235046 734.962204 409.078018 776.061111 410.949554 C 789.694275 411.70668 803.35379 412.180359 816.955841 413.439377 C 819.338715 413.469101 821.702133 415.480774 821.432831 418.007996 C 820.907364 425.331924 819.798309 432.609512 819.220352 439.934692 C 819.060913 439.904465 818.742065 439.844009 818.582626 439.813782 C 813.760696 438.895844 808.863388 438.524872 803.97049 438.375275 C 756.920944 435.845154 709.81665 434.387772 662.700989 434.30217 C 662.3573 435.344803 662.007309 436.383163 661.682114 437.437973 C 658.683395 428.00325 655.660233 418.577408 652.664246 409.143967 Z M 652.664246 409.143967 " transform="matrix(1,0,0,1,0,0)"/>
<path style="stroke: none; fill-rule: nonzero; fill: rgb(91.764712%,91.764712%,91.764712%); opacity: 1;" d="M 652.664246 409.143967 C 693.798294 408.235046 734.962204 409.078018 776.061111 410.949554 C 789.694275 411.70668 803.35379 412.180359 816.955841 413.439377 C 819.338715 413.469101 821.702133 415.480774 821.432831 418.007996 C 820.907364 425.331924 819.798309 432.609512 819.220352 439.934692 C 819.060913 439.904465 818.742065 439.844009 818.582626 439.813782 C 813.760696 438.895844 808.863388 438.524872 803.97049 438.375275 C 756.920944 435.845154 709.81665 434.387772 662.700989 434.30217 C 662.3573 435.344803 662.007309 436.383163 661.682114 437.437973 C 658.683395 428.00325 655.660233 418.577408 652.664246 409.143967 Z M 652.664246 409.143967 "/>
<path style="fill: none; stroke-width: 0.1; stroke-linecap: butt; stroke-linejoin: miter; stroke: rgb(91.764712%,91.764712%,91.764712%); opacity: 1;stroke-miterlimit: 10;" d="M 554.357407 413.644135 C 577.198654 411.863205 600.086731 410.724243 622.986893 409.967545 C 624.250412 409.946121 625.521744 409.937515 626.800858 409.941727 C 629.128128 418.107117 631.52417 426.253754 633.843872 434.423843 C 605.724457 435.121445 577.542084 435.063156 549.47348 436.924255 C 549.841202 431.285812 550.442841 425.66745 550.737488 420.026215 C 550.853409 417.57019 551.417511 414.133347 554.357407 413.644135 Z M 554.357407 413.644135 " transform="matrix(1,0,0,1,0,0)"/>
<path style="stroke: none; fill-rule: nonzero; fill: rgb(91.764712%,91.764712%,91.764712%); opacity: 1;" d="M 554.357407 413.644135 C 577.198654 411.863205 600.086731 410.724243 622.986893 409.967545 C 624.250412 409.946121 625.521744 409.937515 626.800858 409.941727 C 629.128128 418.107117 631.52417 426.253754 633.843872 434.423843 C 605.724457 435.121445 577.542084 435.063156 549.47348 436.924255 C 549.841202 431.285812 550.442841 425.66745 550.737488 420.026215 C 550.853409 417.57019 551.417511 414.133347 554.357407 413.644135 Z M 554.357407 413.644135 "/>
<path style="fill: none; stroke-width: 0.1; stroke-linecap: butt; stroke-linejoin: miter; stroke: rgb(87.450987%,87.450987%,87.450987%); opacity: 1;stroke-miterlimit: 10;" d="M 549.47348 436.924255 C 577.542084 435.063156 605.724457 435.121445 633.843872 434.423843 C 635.303986 439.523209 636.835831 444.604187 638.279114 449.712555 C 630.517242 452.877655 621.59877 456.385223 618.108917 464.703903 C 617.803421 465.313828 617.192444 466.533707 616.886948 467.143646 C 610.246841 467.304672 603.612564 467.578278 596.974854 467.681381 C 580.992828 467.545212 565.039871 468.71431 549.060394 468.787521 C 536.859192 469.585663 524.634277 469.785522 512.425735 470.410675 C 524.606064 459.073593 536.957932 447.874969 549.47348 436.924255 Z M 549.47348 436.924255 " transform="matrix(1,0,0,1,0,0)"/>
<path style="stroke: none; fill-rule: nonzero; fill: rgb(87.450987%,87.450987%,87.450987%); opacity: 1;" d="M 549.47348 436.924255 C 577.542084 435.063156 605.724457 435.121445 633.843872 434.423843 C 635.303986 439.523209 636.835831 444.604187 638.279114 449.712555 C 630.517242 452.877655 621.59877 456.385223 618.108917 464.703903 C 617.803421 465.313828 617.192444 466.533707 616.886948 467.143646 C 610.246841 467.304672 603.612564 467.578278 596.974854 467.681381 C 580.992828 467.545212 565.039871 468.71431 549.060394 468.787521 C 536.859192 469.585663 524.634277 469.785522 512.425735 470.410675 C 524.606064 459.073593 536.957932 447.874969 549.47348 436.924255 Z M 549.47348 436.924255 "/>
<path style="fill: none; stroke-width: 0.1; stroke-linecap: butt; stroke-linejoin: miter; stroke: rgb(87.450987%,87.450987%,87.450987%); opacity: 1;stroke-miterlimit: 10;" d="M 662.700989 434.30217 C 709.81665 434.387772 756.920944 435.845154 803.97049 438.375275 C 808.863388 438.524872 813.760696 438.895844 818.582626 439.813782 C 818.327499 440.008133 817.817215 440.39682 817.562088 440.591171 C 804.823975 449.835922 792.124084 459.136032 779.369431 468.358429 C 778.256943 469.141693 777.146515 469.922546 776.048676 470.712708 C 765.712341 469.998428 755.355331 469.703171 745.014877 469.113892 C 736.223282 468.816116 727.421143 468.178741 718.628754 468.691864 C 718.5681 468.239838 718.446793 467.3358 718.386139 466.883789 C 714.67923 465.802658 710.960938 464.643723 707.099823 464.320648 C 696.148849 463.145462 685.141068 466.750916 674.249786 464.500061 C 672.421356 464.385605 671.464478 462.195801 672.964783 460.974609 C 675.37204 459.460983 678.321457 459.179977 680.802063 457.803741 C 684.171234 455.086731 684.110977 448.977646 680.188736 446.752014 C 675.297318 443.893433 669.321381 444.857498 663.913727 444.709747 C 663.134247 442.292297 662.420502 439.859055 661.682114 437.437973 C 662.007309 436.383163 662.3573 435.344803 662.700989 434.30217 Z M 662.700989 434.30217 " transform="matrix(1,0,0,1,0,0)"/>
<path style="stroke: none; fill-rule: nonzero; fill: rgb(87.450987%,87.450987%,87.450987%); opacity: 1;" d="M 662.700989 434.30217 C 709.81665 434.387772 756.920944 435.845154 803.97049 438.375275 C 808.863388 438.524872 813.760696 438.895844 818.582626 439.813782 C 818.327499 440.008133 817.817215 440.39682 817.562088 440.591171 C 804.823975 449.835922 792.124084 459.136032 779.369431 468.358429 C 778.256943 469.141693 777.146515 469.922546 776.048676 470.712708 C 765.712341 469.998428 755.355331 469.703171 745.014877 469.113892 C 736.223282 468.816116 727.421143 468.178741 718.628754 468.691864 C 718.5681 468.239838 718.446793 467.3358 718.386139 466.883789 C 714.67923 465.802658 710.960938 464.643723 707.099823 464.320648 C 696.148849 463.145462 685.141068 466.750916 674.249786 464.500061 C 672.421356 464.385605 671.464478 462.195801 672.964783 460.974609 C 675.37204 459.460983 678.321457 459.179977 680.802063 457.803741 C 684.171234 455.086731 684.110977 448.977646 680.188736 446.752014 C 675.297318 443.893433 669.321381 444.857498 663.913727 444.709747 C 663.134247 442.292297 662.420502 439.859055 661.682114 437.437973 C 662.007309 436.383163 662.3573 435.344803 662.700989 434.30217 Z M 662.700989 434.30217 "/>
<path style="fill: none; stroke-width: 0.1; stroke-linecap: butt; stroke-linejoin: miter; stroke: rgb(68.235296%,69.01961%,68.627453%); opacity: 1;stroke-miterlimit: 10;" d="M 818.582626 439.813782 C 818.742065 439.844009 819.060913 439.904465 819.220352 439.934692 C 821.794632 442.03894 823.600266 444.883682 825.685364 447.445953 C 834.213989 458.193817 842.784134 468.909851 851.328873 479.647537 C 854.096573 483.18721 857.193985 486.512009 859.360443 490.487991 L 858.064407 489.93399 C 852.716248 487.892166 847.911118 484.753616 842.916534 482.02034 C 832.020416 475.981201 821.160202 469.880798 810.280838 463.816711 C 811.819443 455.780457 816.60614 448.761703 817.562088 440.591171 C 817.817215 440.39682 818.327499 440.008133 818.582626 439.813782 Z M 818.582626 439.813782 " transform="matrix(1,0,0,1,0,0)"/>
<path style="stroke: none; fill-rule: nonzero; fill: rgb(68.235296%,69.01961%,68.627453%); opacity: 1;" d="M 818.582626 439.813782 C 818.742065 439.844009 819.060913 439.904465 819.220352 439.934692 C 821.794632 442.03894 823.600266 444.883682 825.685364 447.445953 C 834.213989 458.193817 842.784134 468.909851 851.328873 479.647537 C 854.096573 483.18721 857.193985 486.512009 859.360443 490.487991 L 858.064407 489.93399 C 852.716248 487.892166 847.911118 484.753616 842.916534 482.02034 C 832.020416 475.981201 821.160202 469.880798 810.280838 463.816711 C 811.819443 455.780457 816.60614 448.761703 817.562088 440.591171 C 817.817215 440.39682 818.327499 440.008133 818.582626 439.813782 Z M 818.582626 439.813782 "/>
<path style="fill: none; stroke-width: 0.1; stroke-linecap: butt; stroke-linejoin: miter; stroke: rgb(71.764708%,71.764708%,71.764708%); opacity: 1;stroke-miterlimit: 10;" d="M 779.369431 468.358429 C 792.124084 459.136032 804.823975 449.835922 817.562088 440.591171 C 816.60614 448.761703 811.819443 455.780457 810.280838 463.816711 C 801.202362 465.355042 792.215576 467.38475 783.227585 469.361298 C 781.926987 469.040802 780.640945 468.706512 779.369431 468.358429 Z M 779.369431 468.358429 " transform="matrix(1,0,0,1,0,0)"/>
<path style="stroke: none; fill-rule: nonzero; fill: rgb(71.764708%,71.764708%,71.764708%); opacity: 1;" d="M 779.369431 468.358429 C 792.124084 459.136032 804.823975 449.835922 817.562088 440.591171 C 816.60614 448.761703 811.819443 455.780457 810.280838 463.816711 C 801.202362 465.355042 792.215576 467.38475 783.227585 469.361298 C 781.926987 469.040802 780.640945 468.706512 779.369431 468.358429 Z M 779.369431 468.358429 "/>
<path style="fill: none; stroke-width: 0.1; stroke-linecap: butt; stroke-linejoin: miter; stroke: rgb(88.627458%,72.549021%,22.352943%); opacity: 1;stroke-miterlimit: 10;" d="M 663.913727 444.709747 C 669.321381 444.857498 675.297318 443.893433 680.188736 446.752014 C 684.110977 448.977646 684.171234 455.086731 680.802063 457.803741 C 678.321457 459.179977 675.37204 459.460983 672.964783 460.974609 C 671.464478 462.195801 672.421356 464.385605 674.249786 464.500061 C 685.141068 466.750916 696.148849 463.145462 707.099823 464.320648 C 710.960938 464.643723 714.67923 465.802658 718.386139 466.883789 C 718.446793 467.3358 718.5681 468.239838 718.628754 468.691864 C 719.608749 474.758133 718.465103 480.874176 718.791 486.969162 C 718.983322 493.367828 721.37796 499.701645 719.750671 506.102798 C 717.642517 506.820511 715.642273 507.816681 713.747482 508.970001 C 717.230637 499.244949 713.909195 488.963028 714.330734 478.968979 C 711.389542 490.748825 702.526627 499.694351 697.76123 510.649872 C 694.996201 518.510544 697.044434 526.890869 697.899872 534.903915 C 699.197113 545.230988 698.760773 555.657471 698.640518 566.036758 C 698.551834 567.92363 698.540543 569.912277 697.663727 571.646759 C 695.581436 572.135559 693.083679 571.942307 691.775558 570.029678 C 691.829346 565.968094 693.47377 562.115128 693.541367 558.048309 C 693.884033 548.407913 693.711411 538.709427 692.321167 529.151367 C 691.668533 524.658783 691.264679 520.03363 692.35881 515.577484 C 694.150497 507.865143 698.744339 501.266037 702.376923 494.349991 C 706.200836 487.266006 712.089218 480.439606 711.874481 471.958466 C 712.083878 469.263626 709.229004 468.269745 707.045883 468.182343 C 704.374359 467.297668 703.233124 470.334122 701.648422 471.794724 C 700.317413 470.50293 699.008392 469.200394 697.708023 467.898529 C 686.31012 466.74469 674.838501 469.71347 663.521469 467.183899 C 660.236404 472.654999 662.21669 478.944717 663.740387 484.621048 C 661.632584 484.514862 659.530396 484.427399 657.439209 484.245865 C 654.746201 490.131393 655.18103 496.731613 655.404602 503.030167 C 655.582367 505.206512 655.49292 508.017151 657.828125 509.120422 C 663.155472 512.227692 668.833969 515.3564 672.302032 520.664322 C 673.603653 522.358185 671.572983 523.995071 670.892822 525.466003 C 666.271652 518.759903 659.43576 513.633453 651.688934 511.125961 C 648.22171 509.903412 644.625809 511.437943 641.102509 511.201721 C 637.448715 510.129288 633.910187 508.684296 630.257294 507.618347 C 629.049835 503.424637 630.666718 499.338379 632.274323 495.522369 C 634.124466 491.193802 632.687943 486.49379 632.898773 481.989151 C 632.963928 478.419815 634.05986 474.88913 633.634308 471.317947 C 631.756989 469.249481 628.7854 468.72049 626.139389 469.191071 C 623.632462 472.919983 624.690445 477.749985 624.504807 481.988129 C 624.317627 490.641266 625.914795 499.617615 622.860001 507.955841 C 604.61113 511.529327 591.451904 527.737976 586.599304 544.994827 C 585.397766 544.271683 584.167038 543.628632 583.054413 542.804306 C 583.410446 539.778107 585.415421 537.349075 586.739227 534.706512 C 590.05899 528.529388 592.150345 521.271912 597.85318 516.747818 C 603.799667 512.169418 611.346802 509.997345 616.798309 504.710846 C 619.637146 501.973663 620.120163 497.757965 620.127869 494.019943 C 619.856827 484.223022 618.295166 474.50238 618.108917 464.703903 C 621.59877 456.385223 630.517242 452.877655 638.279114 449.712555 C 639.114502 452.645279 639.972641 455.572708 640.836166 458.505264 C 648.483322 459.182846 657.433182 459.519257 663.287628 453.621155 C 664.133453 452.498245 664.94252 451.34787 665.763794 450.206223 C 665.125809 448.372101 664.504425 446.54541 663.913727 444.709747 Z M 663.913727 444.709747 " transform="matrix(1,0,0,1,0,0)"/>
<path style="stroke: none; fill-rule: nonzero; fill: rgb(88.627458%,72.549021%,22.352943%); opacity: 1;" d="M 663.913727 444.709747 C 669.321381 444.857498 675.297318 443.893433 680.188736 446.752014 C 684.110977 448.977646 684.171234 455.086731 680.802063 457.803741 C 678.321457 459.179977 675.37204 459.460983 672.964783 460.974609 C 671.464478 462.195801 672.421356 464.385605 674.249786 464.500061 C 685.141068 466.750916 696.148849 463.145462 707.099823 464.320648 C 710.960938 464.643723 714.67923 465.802658 718.386139 466.883789 C 718.446793 467.3358 718.5681 468.239838 718.628754 468.691864 C 719.608749 474.758133 718.465103 480.874176 718.791 486.969162 C 718.983322 493.367828 721.37796 499.701645 719.750671 506.102798 C 717.642517 506.820511 715.642273 507.816681 713.747482 508.970001 C 717.230637 499.244949 713.909195 488.963028 714.330734 478.968979 C 711.389542 490.748825 702.526627 499.694351 697.76123 510.649872 C 694.996201 518.510544 697.044434 526.890869 697.899872 534.903915 C 699.197113 545.230988 698.760773 555.657471 698.640518 566.036758 C 698.551834 567.92363 698.540543 569.912277 697.663727 571.646759 C 695.581436 572.135559 693.083679 571.942307 691.775558 570.029678 C 691.829346 565.968094 693.47377 562.115128 693.541367 558.048309 C 693.884033 548.407913 693.711411 538.709427 692.321167 529.151367 C 691.668533 524.658783 691.264679 520.03363 692.35881 515.577484 C 694.150497 507.865143 698.744339 501.266037 702.376923 494.349991 C 706.200836 487.266006 712.089218 480.439606 711.874481 471.958466 C 712.083878 469.263626 709.229004 468.269745 707.045883 468.182343 C 704.374359 467.297668 703.233124 470.334122 701.648422 471.794724 C 700.317413 470.50293 699.008392 469.200394 697.708023 467.898529 C 686.31012 466.74469 674.838501 469.71347 663.521469 467.183899 C 660.236404 472.654999 662.21669 478.944717 663.740387 484.621048 C 661.632584 484.514862 659.530396 484.427399 657.439209 484.245865 C 654.746201 490.131393 655.18103 496.731613 655.404602 503.030167 C 655.582367 505.206512 655.49292 508.017151 657.828125 509.120422 C 663.155472 512.227692 668.833969 515.3564 672.302032 520.664322 C 673.603653 522.358185 671.572983 523.995071 670.892822 525.466003 C 666.271652 518.759903 659.43576 513.633453 651.688934 511.125961 C 648.22171 509.903412 644.625809 511.437943 641.102509 511.201721 C 637.448715 510.129288 633.910187 508.684296 630.257294 507.618347 C 629.049835 503.424637 630.666718 499.338379 632.274323 495.522369 C 634.124466 491.193802 632.687943 486.49379 632.898773 481.989151 C 632.963928 478.419815 634.05986 474.88913 633.634308 471.317947 C 631.756989 469.249481 628.7854 468.72049 626.139389 469.191071 C 623.632462 472.919983 624.690445 477.749985 624.504807 481.988129 C 624.317627 490.641266 625.914795 499.617615 622.860001 507.955841 C 604.61113 511.529327 591.451904 527.737976 586.599304 544.994827 C 585.397766 544.271683 584.167038 543.628632 583.054413 542.804306 C 583.410446 539.778107 585.415421 537.349075 586.739227 534.706512 C 590.05899 528.529388 592.150345 521.271912 597.85318 516.747818 C 603.799667 512.169418 611.346802 509.997345 616.798309 504.710846 C 619.637146 501.973663 620.120163 497.757965 620.127869 494.019943 C 619.856827 484.223022 618.295166 474.50238 618.108917 464.703903 C 621.59877 456.385223 630.517242 452.877655 638.279114 449.712555 C 639.114502 452.645279 639.972641 455.572708 640.836166 458.505264 C 648.483322 459.182846 657.433182 459.519257 663.287628 453.621155 C 664.133453 452.498245 664.94252 451.34787 665.763794 450.206223 C 665.125809 448.372101 664.504425 446.54541 663.913727 444.709747 Z M 663.913727 444.709747 "/>
<path style="fill: none; stroke-width: 0.1; stroke-linecap: butt; stroke-linejoin: miter; stroke: rgb(84.313732%,84.313732%,84.313732%); opacity: 1;stroke-miterlimit: 10;" d="M 783.227585 469.361298 C 792.215576 467.38475 801.202362 465.355042 810.280838 463.816711 C 821.160202 469.880798 832.020416 475.981201 842.916534 482.02034 C 847.911118 484.753616 852.716248 487.892166 858.064407 489.93399 C 858.207306 490.375214 858.493103 491.25766 858.636002 491.698883 C 851.354736 488.971527 843.723465 487.426178 836.214722 485.502136 C 817.0578 480.720291 797.976105 475.659546 778.794037 470.986847 C 780.257339 470.424377 781.726532 469.857132 783.227585 469.361298 Z M 783.227585 469.361298 " transform="matrix(1,0,0,1,0,0)"/>
<path style="stroke: none; fill-rule: nonzero; fill: rgb(84.313732%,84.313732%,84.313732%); opacity: 1;" d="M 783.227585 469.361298 C 792.215576 467.38475 801.202362 465.355042 810.280838 463.816711 C 821.160202 469.880798 832.020416 475.981201 842.916534 482.02034 C 847.911118 484.753616 852.716248 487.892166 858.064407 489.93399 C 858.207306 490.375214 858.493103 491.25766 858.636002 491.698883 C 851.354736 488.971527 843.723465 487.426178 836.214722 485.502136 C 817.0578 480.720291 797.976105 475.659546 778.794037 470.986847 C 780.257339 470.424377 781.726532 469.857132 783.227585 469.361298 Z M 783.227585 469.361298 "/>
<path style="fill: none; stroke-width: 0.1; stroke-linecap: butt; stroke-linejoin: miter; stroke: rgb(84.313732%,84.313732%,84.313732%); opacity: 1;stroke-miterlimit: 10;" d="M 616.886948 467.143646 C 617.192444 466.533707 617.803421 465.313828 618.108917 464.703903 C 618.295166 474.50238 619.856827 484.223022 620.127869 494.019943 C 620.120163 497.757965 619.637146 501.973663 616.798309 504.710846 C 611.346802 509.997345 603.799667 512.169418 597.85318 516.747818 C 592.150345 521.271912 590.05899 528.529388 586.739227 534.706512 C 585.415421 537.349075 583.410446 539.778107 583.054413 542.804306 C 584.167038 543.628632 585.397766 544.271683 586.599304 544.994827 C 579.408401 569.972031 580.980286 596.575592 585.629562 621.872192 C 601.360214 618.666153 617.523422 617.658188 633.521896 619.092819 C 634.05278 622.853455 633.284821 627.685211 636.800629 630.200378 C 637.36171 628.583908 637.83107 626.93895 638.56662 625.399399 C 640.431931 623.517181 642.801697 622.229858 644.904968 620.635727 C 655.478745 622.418381 665.807663 625.384933 675.894882 628.998596 C 679.811874 605.564102 681.14711 581.710464 680.06485 557.981842 C 679.515793 546.664017 677.26503 535.040955 670.892822 525.466003 C 671.572983 523.995071 673.603653 522.358185 672.302032 520.664322 C 668.833969 515.3564 663.155472 512.227692 657.828125 509.120422 C 655.49292 508.017151 655.582367 505.206512 655.404602 503.030167 C 655.18103 496.731613 654.746201 490.131393 657.439209 484.245865 C 659.530396 484.427399 661.632584 484.514862 663.740387 484.621048 C 662.21669 478.944717 660.236404 472.654999 663.521469 467.183899 C 674.838501 469.71347 686.31012 466.74469 697.708023 467.898529 C 699.008392 469.200394 700.317413 470.50293 701.648422 471.794724 C 703.233124 470.334122 704.374359 467.297668 707.045883 468.182343 C 709.229004 468.269745 712.083878 469.263626 711.874481 471.958466 C 712.089218 480.439606 706.200836 487.266006 702.376923 494.349991 C 698.744339 501.266037 694.150497 507.865143 692.35881 515.577484 C 691.264679 520.03363 691.668533 524.658783 692.321167 529.151367 C 693.711411 538.709427 693.884033 548.407913 693.541367 558.048309 C 693.47377 562.115128 691.829346 565.968094 691.775558 570.029678 C 693.083679 571.942307 695.581436 572.135559 697.663727 571.646759 C 698.540543 569.912277 698.551834 567.92363 698.640518 566.036758 C 698.760773 555.657471 699.197113 545.230988 697.899872 534.903915 C 697.044434 526.890869 694.996201 518.510544 697.76123 510.649872 C 702.526627 499.694351 711.389542 490.748825 714.330734 478.968979 C 713.909195 488.963028 717.230637 499.244949 713.747482 508.970001 C 711.205215 512.076706 708.914642 515.783768 709.422516 519.989502 C 709.536331 528.40686 719.044693 534.775528 726.906052 531.766693 C 734.980347 529.17836 738.645096 518.317947 733.400925 511.533005 C 730.507919 506.940155 724.872009 505.489731 719.750671 506.102798 C 721.37796 499.701645 718.983322 493.367828 718.791 486.969162 C 718.465103 480.874176 719.608749 474.758133 718.628754 468.691864 C 727.421143 468.178741 736.223282 468.816116 745.014877 469.113892 C 755.355331 469.703171 765.712341 469.998428 776.048676 470.712708 C 775.14917 479.874191 773.536026 488.945328 772.394379 498.078598 C 768.694778 525.987564 766.272476 554.048462 764.459351 582.138489 C 763.796432 598.098129 762.572769 614.044525 762.651825 630.029099 C 762.627823 658.170471 762.10524 686.348541 763.965546 714.448257 C 675.777222 705.120178 587.553925 696.112671 499.386627 686.602417 C 498.053024 654.428116 498.411591 622.185379 500.045288 590.031509 C 502.07959 550.002869 505.854095 510.043213 511.990189 470.428116 L 512.425735 470.410675 C 524.634277 469.785522 536.859192 469.585663 549.060394 468.787521 C 565.039871 468.71431 580.992828 467.545212 596.974854 467.681381 C 603.612564 467.578278 610.246841 467.304672 616.886948 467.143646 Z M 616.886948 467.143646 " transform="matrix(1,0,0,1,0,0)"/>
<path style="stroke: none; fill-rule: nonzero; fill: rgb(84.313732%,84.313732%,84.313732%); opacity: 1;" d="M 616.886948 467.143646 C 617.192444 466.533707 617.803421 465.313828 618.108917 464.703903 C 618.295166 474.50238 619.856827 484.223022 620.127869 494.019943 C 620.120163 497.757965 619.637146 501.973663 616.798309 504.710846 C 611.346802 509.997345 603.799667 512.169418 597.85318 516.747818 C 592.150345 521.271912 590.05899 528.529388 586.739227 534.706512 C 585.415421 537.349075 583.410446 539.778107 583.054413 542.804306 C 584.167038 543.628632 585.397766 544.271683 586.599304 544.994827 C 579.408401 569.972031 580.980286 596.575592 585.629562 621.872192 C 601.360214 618.666153 617.523422 617.658188 633.521896 619.092819 C 634.05278 622.853455 633.284821 627.685211 636.800629 630.200378 C 637.36171 628.583908 637.83107 626.93895 638.56662 625.399399 C 640.431931 623.517181 642.801697 622.229858 644.904968 620.635727 C 655.478745 622.418381 665.807663 625.384933 675.894882 628.998596 C 679.811874 605.564102 681.14711 581.710464 680.06485 557.981842 C 679.515793 546.664017 677.26503 535.040955 670.892822 525.466003 C 671.572983 523.995071 673.603653 522.358185 672.302032 520.664322 C 668.833969 515.3564 663.155472 512.227692 657.828125 509.120422 C 655.49292 508.017151 655.582367 505.206512 655.404602 503.030167 C 655.18103 496.731613 654.746201 490.131393 657.439209 484.245865 C 659.530396 484.427399 661.632584 484.514862 663.740387 484.621048 C 662.21669 478.944717 660.236404 472.654999 663.521469 467.183899 C 674.838501 469.71347 686.31012 466.74469 697.708023 467.898529 C 699.008392 469.200394 700.317413 470.50293 701.648422 471.794724 C 703.233124 470.334122 704.374359 467.297668 707.045883 468.182343 C 709.229004 468.269745 712.083878 469.263626 711.874481 471.958466 C 712.089218 480.439606 706.200836 487.266006 702.376923 494.349991 C 698.744339 501.266037 694.150497 507.865143 692.35881 515.577484 C 691.264679 520.03363 691.668533 524.658783 692.321167 529.151367 C 693.711411 538.709427 693.884033 548.407913 693.541367 558.048309 C 693.47377 562.115128 691.829346 565.968094 691.775558 570.029678 C 693.083679 571.942307 695.581436 572.135559 697.663727 571.646759 C 698.540543 569.912277 698.551834 567.92363 698.640518 566.036758 C 698.760773 555.657471 699.197113 545.230988 697.899872 534.903915 C 697.044434 526.890869 694.996201 518.510544 697.76123 510.649872 C 702.526627 499.694351 711.389542 490.748825 714.330734 478.968979 C 713.909195 488.963028 717.230637 499.244949 713.747482 508.970001 C 711.205215 512.076706 708.914642 515.783768 709.422516 519.989502 C 709.536331 528.40686 719.044693 534.775528 726.906052 531.766693 C 734.980347 529.17836 738.645096 518.317947 733.400925 511.533005 C 730.507919 506.940155 724.872009 505.489731 719.750671 506.102798 C 721.37796 499.701645 718.983322 493.367828 718.791 486.969162 C 718.465103 480.874176 719.608749 474.758133 718.628754 468.691864 C 727.421143 468.178741 736.223282 468.816116 745.014877 469.113892 C 755.355331 469.703171 765.712341 469.998428 776.048676 470.712708 C 775.14917 479.874191 773.536026 488.945328 772.394379 498.078598 C 768.694778 525.987564 766.272476 554.048462 764.459351 582.138489 C 763.796432 598.098129 762.572769 614.044525 762.651825 630.029099 C 762.627823 658.170471 762.10524 686.348541 763.965546 714.448257 C 675.777222 705.120178 587.553925 696.112671 499.386627 686.602417 C 498.053024 654.428116 498.411591 622.185379 500.045288 590.031509 C 502.07959 550.002869 505.854095 510.043213 511.990189 470.428116 L 512.425735 470.410675 C 524.634277 469.785522 536.859192 469.585663 549.060394 468.787521 C 565.039871 468.71431 580.992828 467.545212 596.974854 467.681381 C 603.612564 467.578278 610.246841 467.304672 616.886948 467.143646 Z M 616.886948 467.143646 "/>
<path style="fill: none; stroke-width: 0.1; stroke-linecap: butt; stroke-linejoin: miter; stroke: rgb(77.254909%,77.254909%,77.254909%); opacity: 1;stroke-miterlimit: 10;" d="M 776.048676 470.712708 C 777.146515 469.922546 778.256943 469.141693 779.369431 468.358429 C 780.640945 468.706512 781.926987 469.040802 783.227585 469.361298 C 781.726532 469.857132 780.257339 470.424377 778.794037 470.986847 C 797.976105 475.659546 817.0578 480.720291 836.214722 485.502136 C 843.723465 487.426178 851.354736 488.971527 858.636002 491.698883 C 858.493103 491.25766 858.207306 490.375214 858.064407 489.93399 L 859.360443 490.487991 C 861.657364 491.283035 861.331985 494.035858 861.599686 495.96698 C 865.237289 541.189148 867.365189 586.66304 864.513794 631.995316 C 863.775818 648.446503 862.74472 664.886139 861.27533 681.292755 C 828.8927 692.501358 796.374237 703.316986 763.965546 714.448257 C 762.10524 686.348541 762.627823 658.170471 762.651825 630.029099 C 762.572769 614.044525 763.796432 598.098129 764.459351 582.138489 C 766.272476 554.048462 768.694778 525.987564 772.394379 498.078598 C 773.536026 488.945328 775.14917 479.874191 776.048676 470.712708 Z M 776.048676 470.712708 " transform="matrix(1,0,0,1,0,0)"/>
<path style="stroke: none; fill-rule: nonzero; fill: rgb(77.254909%,77.254909%,77.254909%); opacity: 1;" d="M 776.048676 470.712708 C 777.146515 469.922546 778.256943 469.141693 779.369431 468.358429 C 780.640945 468.706512 781.926987 469.040802 783.227585 469.361298 C 781.726532 469.857132 780.257339 470.424377 778.794037 470.986847 C 797.976105 475.659546 817.0578 480.720291 836.214722 485.502136 C 843.723465 487.426178 851.354736 488.971527 858.636002 491.698883 C 858.493103 491.25766 858.207306 490.375214 858.064407 489.93399 L 859.360443 490.487991 C 861.657364 491.283035 861.331985 494.035858 861.599686 495.96698 C 865.237289 541.189148 867.365189 586.66304 864.513794 631.995316 C 863.775818 648.446503 862.74472 664.886139 861.27533 681.292755 C 828.8927 692.501358 796.374237 703.316986 763.965546 714.448257 C 762.10524 686.348541 762.627823 658.170471 762.651825 630.029099 C 762.572769 614.044525 763.796432 598.098129 764.459351 582.138489 C 766.272476 554.048462 768.694778 525.987564 772.394379 498.078598 C 773.536026 488.945328 775.14917 479.874191 776.048676 470.712708 Z M 776.048676 470.712708 "/>
<path style="fill: none; stroke-width: 0.1; stroke-linecap: butt; stroke-linejoin: miter; stroke: rgb(84.313732%,84.313732%,84.313732%); opacity: 1;stroke-miterlimit: 10;" d="M 626.139389 469.191071 C 628.7854 468.72049 631.756989 469.249481 633.634308 471.317947 C 634.05986 474.88913 632.963928 478.419815 632.898773 481.989151 C 632.687943 486.49379 634.124466 491.193802 632.274323 495.522369 C 630.666718 499.338379 629.049835 503.424637 630.257294 507.618347 C 627.785004 507.339325 625.294205 507.546219 622.860001 507.955841 C 625.914795 499.617615 624.317627 490.641266 624.504807 481.988129 C 624.690445 477.749985 623.632462 472.919983 626.139389 469.191071 Z M 626.139389 469.191071 " transform="matrix(1,0,0,1,0,0)"/>
<path style="stroke: none; fill-rule: nonzero; fill: rgb(84.313732%,84.313732%,84.313732%); opacity: 1;" d="M 626.139389 469.191071 C 628.7854 468.72049 631.756989 469.249481 633.634308 471.317947 C 634.05986 474.88913 632.963928 478.419815 632.898773 481.989151 C 632.687943 486.49379 634.124466 491.193802 632.274323 495.522369 C 630.666718 499.338379 629.049835 503.424637 630.257294 507.618347 C 627.785004 507.339325 625.294205 507.546219 622.860001 507.955841 C 625.914795 499.617615 624.317627 490.641266 624.504807 481.988129 C 624.690445 477.749985 623.632462 472.919983 626.139389 469.191071 Z M 626.139389 469.191071 "/>
<path style="fill: none; stroke-width: 0.1; stroke-linecap: butt; stroke-linejoin: miter; stroke: rgb(20.000002%,20.000002%,20.000002%); opacity: 1;stroke-miterlimit: 10;" d="M 552.211517 498.245117 C 559.701447 494.876923 568.990295 500.052841 570.41864 508.025253 C 572.123627 515.90802 565.001755 524.291428 556.937561 523.721924 C 549.888123 523.758942 543.6306 517.112442 544.172363 510.056061 C 544.106873 504.975204 547.532349 500.121735 552.211517 498.245117 Z M 552.211517 498.245117 " transform="matrix(1,0,0,1,0,0)"/>
<path style="stroke: none; fill-rule: nonzero; fill: rgb(20.000002%,20.000002%,20.000002%); opacity: 1;" d="M 552.211517 498.245117 C 559.701447 494.876923 568.990295 500.052841 570.41864 508.025253 C 572.123627 515.90802 565.001755 524.291428 556.937561 523.721924 C 549.888123 523.758942 543.6306 517.112442 544.172363 510.056061 C 544.106873 504.975204 547.532349 500.121735 552.211517 498.245117 Z M 552.211517 498.245117 "/>
<path style="fill: none; stroke-width: 0.1; stroke-linecap: butt; stroke-linejoin: miter; stroke: rgb(100%,100%,100%); opacity: 1;stroke-miterlimit: 10;" d="M 555.613266 502.01091 C 560.461594 500.858765 565.739487 504.951538 565.69548 509.967667 C 566.15863 514.698242 561.684113 519.153214 556.966629 518.741821 C 552.023392 518.844528 547.854782 513.718765 548.759094 508.899384 C 549.554504 505.619995 552.21492 502.628922 555.613266 502.01091 Z M 555.613266 502.01091 " transform="matrix(1,0,0,1,0,0)"/>
<path style="stroke: none; fill-rule: nonzero; fill: rgb(100%,100%,100%); opacity: 1;" d="M 555.613266 502.01091 C 560.461594 500.858765 565.739487 504.951538 565.69548 509.967667 C 566.15863 514.698242 561.684113 519.153214 556.966629 518.741821 C 552.023392 518.844528 547.854782 513.718765 548.759094 508.899384 C 549.554504 505.619995 552.21492 502.628922 555.613266 502.01091 Z M 555.613266 502.01091 "/>
<path style="fill: none; stroke-width: 0.1; stroke-linecap: butt; stroke-linejoin: miter; stroke: rgb(20.000002%,20.000002%,20.000002%); opacity: 1;stroke-miterlimit: 10;" d="M 713.747482 508.970001 C 715.642273 507.816681 717.642517 506.820511 719.750671 506.102798 C 724.872009 505.489731 730.507919 506.940155 733.400925 511.533005 C 738.645096 518.317947 734.980347 529.17836 726.906052 531.766693 C 719.044693 534.775528 709.536331 528.40686 709.422516 519.989502 C 708.914642 515.783768 711.205215 512.076706 713.747482 508.970001 Z M 713.747482 508.970001 " transform="matrix(1,0,0,1,0,0)"/>
<path style="stroke: none; fill-rule: nonzero; fill: rgb(20.000002%,20.000002%,20.000002%); opacity: 1;" d="M 713.747482 508.970001 C 715.642273 507.816681 717.642517 506.820511 719.750671 506.102798 C 724.872009 505.489731 730.507919 506.940155 733.400925 511.533005 C 738.645096 518.317947 734.980347 529.17836 726.906052 531.766693 C 719.044693 534.775528 709.536331 528.40686 709.422516 519.989502 C 708.914642 515.783768 711.205215 512.076706 713.747482 508.970001 Z M 713.747482 508.970001 "/>
<path style="fill: none; stroke-width: 0.1; stroke-linecap: butt; stroke-linejoin: miter; stroke: rgb(20.000002%,20.000002%,20.000002%); opacity: 1;stroke-miterlimit: 10;" d="M 586.599304 544.994827 C 591.451904 527.737976 604.61113 511.529327 622.860001 507.955841 C 625.294205 507.546219 627.785004 507.339325 630.257294 507.618347 C 633.910187 508.684296 637.448715 510.129288 641.102509 511.201721 C 644.625809 511.437943 648.22171 509.903412 651.688934 511.125961 C 659.43576 513.633453 666.271652 518.759903 670.892822 525.466003 C 677.26503 535.040955 679.515793 546.664017 680.06485 557.981842 C 681.14711 581.710464 679.811874 605.564102 675.894882 628.998596 C 665.807663 625.384933 655.478745 622.418381 644.904968 620.635727 C 642.250626 618.744522 639.51268 616.178101 636.007996 616.485565 C 635.104492 617.282196 634.275803 618.151276 633.521896 619.092819 C 617.523422 617.658188 601.360214 618.666153 585.629562 621.872192 C 580.980286 596.575592 579.408401 569.972031 586.599304 544.994827 Z M 586.599304 544.994827 " transform="matrix(1,0,0,1,0,0)"/>
<path style="stroke: none; fill-rule: nonzero; fill: rgb(20.000002%,20.000002%,20.000002%); opacity: 1;" d="M 586.599304 544.994827 C 591.451904 527.737976 604.61113 511.529327 622.860001 507.955841 C 625.294205 507.546219 627.785004 507.339325 630.257294 507.618347 C 633.910187 508.684296 637.448715 510.129288 641.102509 511.201721 C 644.625809 511.437943 648.22171 509.903412 651.688934 511.125961 C 659.43576 513.633453 666.271652 518.759903 670.892822 525.466003 C 677.26503 535.040955 679.515793 546.664017 680.06485 557.981842 C 681.14711 581.710464 679.811874 605.564102 675.894882 628.998596 C 665.807663 625.384933 655.478745 622.418381 644.904968 620.635727 C 642.250626 618.744522 639.51268 616.178101 636.007996 616.485565 C 635.104492 617.282196 634.275803 618.151276 633.521896 619.092819 C 617.523422 617.658188 601.360214 618.666153 585.629562 621.872192 C 580.980286 596.575592 579.408401 569.972031 586.599304 544.994827 Z M 586.599304 544.994827 "/>
<path style="fill: none; stroke-width: 0.1; stroke-linecap: butt; stroke-linejoin: miter; stroke: rgb(100%,100%,100%); opacity: 1;stroke-miterlimit: 10;" d="M 719.210968 511.142761 C 724.451813 508.59639 731.232727 513.199142 730.865295 518.982605 C 731.40535 525.356415 723.108459 530.008209 717.965179 526.134003 C 712.234009 522.87851 713.133194 513.49472 719.210968 511.142761 Z M 719.210968 511.142761 " transform="matrix(1,0,0,1,0,0)"/>
<path style="stroke: none; fill-rule: nonzero; fill: rgb(100%,100%,100%); opacity: 1;" d="M 719.210968 511.142761 C 724.451813 508.59639 731.232727 513.199142 730.865295 518.982605 C 731.40535 525.356415 723.108459 530.008209 717.965179 526.134003 C 712.234009 522.87851 713.133194 513.49472 719.210968 511.142761 Z M 719.210968 511.142761 "/>
<path style="fill: none; stroke-width: 0.1; stroke-linecap: butt; stroke-linejoin: miter; stroke: rgb(88.627458%,72.549021%,22.352943%); opacity: 1;stroke-miterlimit: 10;" d="M 633.521896 619.092819 C 634.275803 618.151276 635.104492 617.282196 636.007996 616.485565 C 639.51268 616.178101 642.250626 618.744522 644.904968 620.635727 C 642.801697 622.229858 640.431931 623.517181 638.56662 625.399399 C 637.83107 626.93895 637.36171 628.583908 636.800629 630.200378 C 633.284821 627.685211 634.05278 622.853455 633.521896 619.092819 Z M 633.521896 619.092819 " transform="matrix(1,0,0,1,0,0)"/>
<path style="stroke: none; fill-rule: nonzero; fill: rgb(88.627458%,72.549021%,22.352943%); opacity: 1;" d="M 633.521896 619.092819 C 634.275803 618.151276 635.104492 617.282196 636.007996 616.485565 C 639.51268 616.178101 642.250626 618.744522 644.904968 620.635727 C 642.801697 622.229858 640.431931 623.517181 638.56662 625.399399 C 637.83107 626.93895 637.36171 628.583908 636.800629 630.200378 C 633.284821 627.685211 634.05278 622.853455 633.521896 619.092819 Z M 633.521896 619.092819 "/>
<path style="fill: none; stroke-width: 0.1; stroke-linecap: butt; stroke-linejoin: miter; stroke: rgb(88.627458%,72.549021%,22.352943%); opacity: 1;stroke-miterlimit: 10;" d="M 612.225967 635.884079 C 613.033417 640.993073 614.361862 645.995468 615.440689 651.05159 C 616.166183 653.429016 613.73613 655.925644 611.384369 655.532028 C 609.391922 654.500885 608.746994 652.121262 608.92392 650.04538 C 609.248352 645.17717 610.708176 640.486755 612.225967 635.884079 Z M 612.225967 635.884079 " transform="matrix(1,0,0,1,0,0)"/>
<path style="stroke: none; fill-rule: nonzero; fill: rgb(88.627458%,72.549021%,22.352943%); opacity: 1;" d="M 612.225967 635.884079 C 613.033417 640.993073 614.361862 645.995468 615.440689 651.05159 C 616.166183 653.429016 613.73613 655.925644 611.384369 655.532028 C 609.391922 654.500885 608.746994 652.121262 608.92392 650.04538 C 609.248352 645.17717 610.708176 640.486755 612.225967 635.884079 Z M 612.225967 635.884079 "/>
<path style="fill: none; stroke-width: 0.1; stroke-linecap: butt; stroke-linejoin: miter; stroke: rgb(88.627458%,72.549021%,22.352943%); opacity: 1;stroke-miterlimit: 10;" d="M 580.439926 702.707947 C 585.304047 701.139359 590.512482 702.108414 595.324051 703.410934 C 598.240814 704.353607 601.53392 705.33754 603.368561 708.000229 C 604.501587 710.698151 601.836227 712.971329 599.47142 713.585129 C 595.101303 714.755829 590.500397 714.555679 586.034195 714.254395 C 581.688416 713.841736 576.906525 712.469284 574.254929 708.748444 C 574.40596 705.5896 577.904327 703.883606 580.439926 702.707947 Z M 580.439926 702.707947 " transform="matrix(1,0,0,1,0,0)"/>
<path style="stroke: none; fill-rule: nonzero; fill: rgb(88.627458%,72.549021%,22.352943%); opacity: 1;" d="M 580.439926 702.707947 C 585.304047 701.139359 590.512482 702.108414 595.324051 703.410934 C 598.240814 704.353607 601.53392 705.33754 603.368561 708.000229 C 604.501587 710.698151 601.836227 712.971329 599.47142 713.585129 C 595.101303 714.755829 590.500397 714.555679 586.034195 714.254395 C 581.688416 713.841736 576.906525 712.469284 574.254929 708.748444 C 574.40596 705.5896 577.904327 703.883606 580.439926 702.707947 Z M 580.439926 702.707947 "/>
<path style="fill: none; stroke-width: 0.1; stroke-linecap: butt; stroke-linejoin: miter; stroke: rgb(88.627458%,72.549021%,22.352943%); opacity: 1;stroke-miterlimit: 10;" d="M 614.219635 706.414352 C 616.856506 704.988632 620.130814 705.845901 622.049179 708.051407 C 622.078827 709.841843 620.036469 709.065765 618.948792 709.280243 C 617.150299 709.309647 613.615509 708.977234 614.219635 706.414352 Z M 614.219635 706.414352 " transform="matrix(1,0,0,1,0,0)"/>
<path style="stroke: none; fill-rule: nonzero; fill: rgb(88.627458%,72.549021%,22.352943%); opacity: 1;" d="M 614.219635 706.414352 C 616.856506 704.988632 620.130814 705.845901 622.049179 708.051407 C 622.078827 709.841843 620.036469 709.065765 618.948792 709.280243 C 617.150299 709.309647 613.615509 708.977234 614.219635 706.414352 Z M 614.219635 706.414352 "/>
<path style="fill: none; stroke-width: 0.1; stroke-linecap: butt; stroke-linejoin: miter; stroke: rgb(88.627458%,72.549021%,22.352943%); opacity: 1;stroke-miterlimit: 10;" d="M 650.339828 711.535217 C 654.54599 709.616272 659.392075 710.489685 663.666962 711.757141 C 663.413574 713.559631 663.900803 715.967529 661.997864 717.042389 C 658.064468 719.945633 652.599106 718.560638 648.816605 716.105331 C 646.96759 714.71257 648.739365 712.251663 650.339828 711.535217 Z M 650.339828 711.535217 " transform="matrix(1,0,0,1,0,0)"/>
<path style="stroke: none; fill-rule: nonzero; fill: rgb(88.627458%,72.549021%,22.352943%); opacity: 1;" d="M 650.339828 711.535217 C 654.54599 709.616272 659.392075 710.489685 663.666962 711.757141 C 663.413574 713.559631 663.900803 715.967529 661.997864 717.042389 C 658.064468 719.945633 652.599106 718.560638 648.816605 716.105331 C 646.96759 714.71257 648.739365 712.251663 650.339828 711.535217 Z M 650.339828 711.535217 "/>
</g>
</svg>
